/Users/ravi1/work/dev/ideascentrews/com.deepra.ic.ws/src/com/deepra/ic/pojo/User.java
/Users/ravi1/work/dev/ideascentrews/com.deepra.ic.ws/src/com/deepra/ic/ws/Videos.java
/Users/ravi1/work/dev/ideascentrews/com.deepra.ic.ws/src/com/deepra/ic/ws/Registration.java
/Users/ravi1/work/dev/ideascentrews/com.deepra.ic.ws/src/com/deepra/ic/ws/WebRegistration.java
/Users/ravi1/work/dev/ideascentrews/com.deepra.ic.ws/src/com/deepra/ic/ws/ContactWS.java
/Users/ravi1/work/dev/ideascentrews/com.deepra.ic.ws/src/com/deepra/ic/pojo/Video.java
/Users/ravi1/work/dev/ideascentrews/com.deepra.ic.ws/src/com/deepra/ic/ws/AuthorizationFilterWS.java
/Users/ravi1/work/dev/ideascentrews/com.deepra.ic.ws/src/com/deepra/ic/ws/VideoWS.java
/Users/ravi1/work/dev/ideascentrews/com.deepra.ic.ws/src/com/deepra/ic/ws/Authentication.java
/Users/ravi1/work/dev/ideascentrews/com.deepra.ic.ws/src/com/deepra/ic/ws/FtoCWS.java
